Email,From_Name,Message,Amount,Original,Date,SessionID,GiftCertID,Valid
khicks@crispregional.org,CRH Dietary,Thank you for all you do for our department.  We greatly appreciate you.,25,25,10/13/15 14:26,1558108589,GC54858006679,1
ronc2131@yahoo.com,Happy Chef Uniforms,$5 Back 10/12/15,40,40,10/12/15 19:08,,GC70595843898,1
kevinlin110683@yahoo.com,Happy Chef Uniforms,$5 Back 10/12/15,40,40,10/12/15 19:08,,GC62516049227,1
ronc2131@yahoo.com,Happy Chef Uniforms,$5 Back 10/12/15,40,40,10/12/15 19:08,,GC45206599145,1
islascanrestaurant@yahoo.com,Happy Chef Uniforms,$5 Back 10/12/15,40,40,10/12/15 19:08,,GC37966056989,1
ab19@rmhfranchise.com,Happy Chef Uniforms,$5 Back 10/12/15,40,40,10/12/15 19:08,,GC10722760689,1
lwebert@aol.com,Happy Chef Uniforms,$5 Back 10/12/15,40,40,10/12/15 19:08,,GC55763910602,1
thetasteofeasttexas@gmail.com,Happy Chef Uniforms,$5 Back 10/12/15,40,40,10/12/15 19:08,,GC42678485385,1
menucreator@yahoo.com,Happy Chef Uniforms,$5 Back 10/12/15,40,40,10/12/15 19:08,,GC59809029338,1
mysterlingevents@gmail.com,Happy Chef Uniforms,$5 Back 10/12/15,40,40,10/12/15 19:08,,GC25737906111,1
goldinewang@gmail.com,Happy Chef Uniforms,$5 Back 10/12/15,40,40,10/12/15 19:08,,GC03340438308,1
gmuff1@yahoo.com,Happy Chef Uniforms,$5 Back 10/12/15,40,40,10/12/15 19:08,,GC90096035800,1
1smile.parties@gmail.com,Happy Chef Uniforms,$5 Back 10/12/15,40,40,10/12/15 19:08,,GC00563618908,1
chefjosh92@gmail.com,Happy Chef Uniforms,$5 Back 10/12/15,40,40,10/12/15 19:08,,GC51174938211,1
girberttoys33@yahoo.com,Happy Chef Uniforms,$5 Back 10/12/15,40,40,10/12/15 19:08,,GC51165223746,1
hopleg14@gmail.com,Happy Chef Uniforms,$5 Back 10/12/15,40,40,10/12/15 19:08,,GC34236218997,1
kmp1236@yahoo.com,Happy Chef Uniforms,$5 Back 10/12/15,40,40,10/12/15 19:08,,GC65106091132,1
hopleg14@gmail.com,Happy Chef Uniforms,$5 Back 10/12/15,40,40,10/12/15 19:08,,GC25015847541,1
carybrewingco@gmail.com,Happy Chef Uniforms,$5 Back 10/12/15,40,40,10/12/15 19:08,,GC77834942699,1
kevinlin110683@yahoo.com,Happy Chef Uniforms,$5 Back 10/12/15,40,40,10/12/15 19:08,,GC89458061876,1
jbadger-caldwell@hotmail.com,Happy Chef Uniforms,$5 Back 10/12/15,40,40,10/12/15 19:08,,GC37838512096,1
cmc_jcrawford@yahoo.com,Happy Chef Uniforms,$5 Back 10/12/15,40,40,10/12/15 19:08,,GC07961431472,1
bull-eh-dias@bull-eh-dias.com,Happy Chef Uniforms,$5 Back 10/12/15,40,40,10/12/15 19:08,,GC02115383722,1
beverly@oslserves.org,Happy Chef Uniforms,$5 Back 10/12/15,40,40,10/12/15 19:08,,GC75349053354,1
kittyvacha@gmail.com,Happy Chef Uniforms,$5 Back 10/12/15,40,40,10/12/15 19:08,,GC87495320121,1
morfanelli@springhavengolf.com,Happy Chef Uniforms,$5 Back 10/12/15,40,40,10/12/15 19:08,,GC46438275357,1
piolaarlington@piolausa.com,Happy Chef Uniforms,$5 Back 10/12/15,40,40,10/12/15 19:08,,GC26237943387,1
colleen.seitz2@hilton.com,Happy Chef Uniforms,$5 Back 10/12/15,40,40,10/12/15 19:08,,GC56224717958,1
aash@rjuhsd.us,Happy Chef Uniforms,$5 Back 10/12/15,40,40,10/12/15 19:08,,GC91907639329,1
marcus.bullock79@gmail.com,Happy Chef Uniforms,$5 Back 10/12/15,40,40,10/12/15 19:08,,GC35825663323,1
brian51066@gmail.com,Happy Chef Uniforms,$5 Back 10/12/15,40,40,10/12/15 19:08,,GC08831553115,1
miriam.bernal@fcps.edu,Happy Chef Uniforms,$5 Back 10/12/15,40,40,10/12/15 19:08,,GC56368055019,1
caroleh@beachmereinn.com,Happy Chef Uniforms,$5 Back 10/12/15,40,40,10/12/15 19:08,,GC42103327192,1
debibell1@comcast.net,Happy Chef Uniforms,$5 Back 10/12/15,40,40,10/12/15 19:08,,GC12256529990,1
debibell1@comcast.net,Happy Chef Uniforms,$5 Back 10/12/15,40,40,10/12/15 19:08,,GC49143336902,1
debibell1@comcast.net,Happy Chef Uniforms,$5 Back 10/12/15,40,40,10/12/15 19:08,,GC36259660995,1
jenna@miseenplacenv.com,Happy Chef Uniforms,$5 Back 10/12/15,40,40,10/12/15 19:08,,GC28396354336,1
justkris86@yahoo.com,Happy Chef Uniforms,$5 Back 10/12/15,40,40,10/12/15 19:08,,GC91020063922,1
morningtable@kolfac.com,Happy Chef Uniforms,$5 Back 10/12/15,40,40,10/12/15 19:08,,GC63038586739,1
phopkins@svrcasino.com,Happy Chef Uniforms,$5 Back 10/12/15,40,40,10/12/15 19:08,,GC68389871909,1
chisoseattle@gmail.com,Happy Chef Uniforms,$5 Back 10/12/15,40,40,10/12/15 19:08,,GC18584974466,1
edgrr517@gmail.com,Happy Chef Uniforms,$5 Back 10/12/15,40,40,10/12/15 19:08,,GC21689112268,1
lodierno@gerberbars.com,Happy Chef Uniforms,$5 Back 10/12/15,40,40,10/12/15 19:08,,GC38336310760,1
lbley@fayette.k12.in.us,Happy Chef Uniforms,$5 Back 10/12/15,40,40,10/12/15 19:08,,GC53435246686,1
karla@lewisproperties.net,Happy Chef Uniforms,$5 Back 10/12/15,40,40,10/12/15 19:08,,GC29432875785,1
dlowry1930@aol.com,Happy Chef Uniforms,$5 Back 10/12/15,40,40,10/12/15 19:08,,GC27711116657,1
anitalianaffair@nnymail.com,Happy Chef Uniforms,$5 Back 10/12/15,40,40,10/12/15 19:08,,GC85263614454,1
zachbradbrook@ymail.com,Happy Chef Uniforms,$5 Back 10/12/15,40,40,10/12/15 19:08,,GC99302493379,1
charliejones517@yahoo.com,Happy Chef Uniforms,$5 Back 10/12/15,40,40,10/12/15 19:08,,GC97779456475,1
sandra04gomez@yahoo.com,Happy Chef Uniforms,$5 Back 10/12/15,40,40,10/12/15 19:08,,GC98017111200,1
windstar_95@live.com,Happy Chef Uniforms,$5 Back 10/12/15,40,40,10/12/15 19:08,,GC56196328763,1
sherriannk@verizon.net,Happy Chef Uniforms,$5 Back 10/12/15,40,40,10/12/15 19:08,,GC70758107263,1
dsonnier2@att.net,Happy Chef Uniforms,$5 Back 10/12/15,40,40,10/12/15 19:08,,GC34841692894,1
romadeliphil@gmail.com,Happy Chef Uniforms,$5 Back 10/12/15,40,40,10/12/15 19:08,,GC82081153053,1
crepesandbeyond@gmail.com,Happy Chef Uniforms,$5 Back 10/12/15,40,40,10/12/15 19:08,,GC95983544928,1
ronc2131@yahoo.com,Happy Chef Uniforms,$5 Back 10/12/15,40,40,10/12/15 19:08,,GC40432636367,1
nicole.penner@wolfgangpuck.com,Happy Chef Uniforms,$5 Back 10/12/15,40,40,10/12/15 19:08,,GC57864940216,1
okadajapaneserestaurant@gmail.com,Happy Chef Uniforms,$5 Back 10/12/15,40,40,10/12/15 19:08,,GC36179120199,1
amanda.porter@lhwolves.net,Happy Chef Uniforms,$5 Back 10/12/15,40,40,10/12/15 19:08,,GC14471767210,1
lainie.garrison@gmail.com,Happy Chef Uniforms,$5 Back 10/12/15,40,40,10/12/15 19:08,,GC37908634549,1
amacerola@nycap.rr.com,Happy Chef Uniforms,$5 Back 10/12/15,40,40,10/12/15 19:08,,GC05795916765,1
jharris@exceptional-brands.com,Happy Chef Uniforms,$5 Back 10/12/15,40,40,10/12/15 19:08,,GC44702413847,1
vance@oxfordexchange.com,Happy Chef Uniforms,$5 Back 10/12/15,40,40,10/12/15 19:08,,GC40755040588,1
owen@firebirdtavern.com,Happy Chef Uniforms,$5 Back 10/12/15,40,40,10/12/15 19:08,,GC14416908700,1
ron@deweybeachlife.com,Happy Chef Uniforms,$5 Back 10/12/15,40,40,10/12/15 19:08,,GC36664834145,1
v575@hotmail.com,Happy Chef Uniforms,$5 Back 10/12/15,40,40,10/12/15 19:08,,GC82635191421,1
bg8301@bonefishgrill.com,Happy Chef Uniforms,$5 Back 10/12/15,40,40,10/12/15 19:08,,GC53958861847,1
kimi.g.mcadam@kp.org,Happy Chef Uniforms,$5 Back 10/12/15,40,40,10/12/15 19:08,,GC01040533635,1
mcqueenkb@gmail.com,Happy Chef Uniforms,$5 Back 10/12/15,40,40,10/12/15 19:08,,GC89835252136,1
afigueroa@sjdoubletree.com,Happy Chef Uniforms,$5 Back 10/12/15,40,40,10/12/15 19:08,,GC21302098779,1
trixy1215@gmail.com,Happy Chef Uniforms,$5 Back 10/12/15,40,40,10/12/15 19:08,,GC89234892432,1
jennifer@talerico-martin.com,Happy Chef Uniforms,$5 Back 10/12/15,40,40,10/12/15 19:08,,GC42741563125,1
james_smith_989@yahoo.com,Happy Chef Uniforms,$5 Back 10/12/15,40,40,10/12/15 19:08,,GC75681375327,1
dlsteele.ds@gmail.com,Happy Chef Uniforms,$5 Back 10/12/15,40,40,10/12/15 19:08,,GC69831692622,1
catering.jps@gmail.com,Happy Chef Uniforms,$5 Back 10/12/15,40,40,10/12/15 19:08,,GC94778796760,1
mtl3819@hotmail.com,Happy Chef Uniforms,$5 Back 10/12/15,40,40,10/12/15 19:08,,GC55617920791,1
grilledgingervn@hotmail.com,Happy Chef Uniforms,$5 Back 10/12/15,40,40,10/12/15 19:08,,GC94124229867,1
mark@spotdessertbar.com,Happy Chef Uniforms,$5 Back 10/12/15,40,40,10/12/15 19:08,,GC66498840757,1
andyliuping@yahoo.com.hk,Happy Chef Uniforms,$5 Back 10/12/15,40,40,10/12/15 19:08,,GC42927219679,1
info@oleanewhaven.com,Happy Chef Uniforms,$5 Back 10/12/15,40,40,10/12/15 19:08,,GC41252589275,1
gabrielcaldf@hotmail.com,Happy Chef Uniforms,$5 Back 10/12/15,40,40,10/12/15 19:08,,GC03087117861,1
bedhlem@gmail.com,Happy Chef Uniforms,$5 Back 10/12/15,40,40,10/12/15 19:08,,GC83916796021,1
catesby.ware@bcchospital.org,Happy Chef Uniforms,$5 Back 10/12/15,40,40,10/12/15 19:08,,GC89056807700,1
maximus9080@gmail.com,Happy Chef Uniforms,$5 Back 10/12/15,40,40,10/12/15 19:08,,GC40581685580,1
le.ann@icloud.com,Happy Chef Uniforms,$5 Back 10/12/15,40,40,10/12/15 19:08,,GC79945334240,1
mark@giuseppes.net,Happy Chef Uniforms,$5 Back 10/12/15,40,40,10/12/15 19:08,,GC94307828630,1
hyer-jacob@aramark.com,Happy Chef Uniforms,$5 Back 10/12/15,40,40,10/12/15 19:08,,GC15929957489,1
info@visavisny.com,Happy Chef Uniforms,$5 Back 10/12/15,40,40,10/12/15 19:08,,GC95199381319,1
barrett@thebusinessinn.com,Happy Chef Uniforms,$5 Back 10/12/15,40,40,10/12/15 19:08,,GC67738267905,1
accounts@hectorsmariscos.com,Happy Chef Uniforms,$5 Back 10/12/15,40,40,10/12/15 19:08,,GC28734067265,1
moreirapablo75@gmail.com,Happy Chef Uniforms,$5 Back 10/12/15,40,40,10/12/15 19:08,,GC93847790940,1
bonitaspringsofficesupport@americanhouse.com,Happy Chef Uniforms,$5 Back 10/12/15,40,40,10/12/15 19:08,,GC73420087304,1
jonathan.joseph@us.af.mil,Happy Chef Uniforms,$5 Back 10/12/15,40,40,10/12/15 19:08,,GC92624372432,1
tlcclimer@att.net,Happy Chef Uniforms,$5 Back 10/12/15,40,40,10/12/15 19:08,,GC98897859025,1
teresa@frick.org,Happy Chef Uniforms,$5 Back 10/12/15,40,40,10/12/15 19:08,,GC98378664225,1
jlin@cgemgmt.com,Happy Chef Uniforms,$5 Back 10/12/15,40,40,10/12/15 19:08,,GC53825655245,1
albino.herrera@yahoo.com,Happy Chef Uniforms,$5 Back 10/12/15,40,40,10/12/15 19:08,,GC89041917043,1
smith-michelle11@aramark.com,Happy Chef Uniforms,$5 Back 10/12/15,40,40,10/12/15 19:08,,GC90889505701,1
bk@chefandthefarmer.com,Happy Chef Uniforms,$5 Back 10/12/15,40,40,10/12/15 19:08,,GC83409885218,1
sharon@hofa.com,Happy Chef Uniforms,$5 Back 10/12/15,40,40,10/12/15 19:08,,GC53946790193,1
schmoll-kerry@aramark.com,Happy Chef Uniforms,$5 Back 10/12/15,40,40,10/12/15 19:08,,GC13320026063,1
lisa.setzer@ccc.ca.gov,Happy Chef Uniforms,$5 Back 10/12/15,1.17,40,10/12/15 19:08,,GC89038907510,1
mzywicke@mcfi.net,Happy Chef Uniforms,$5 Back 10/12/15,40,40,10/12/15 19:08,,GC96303409431,1
mzywicke@mcfi.net,Happy Chef Uniforms,$5 Back 10/12/15,40,40,10/12/15 19:08,,GC88996620514,1
samewida@sbcglobal.net,Happy Chef Uniforms,$5 Back 10/12/15,40,40,10/12/15 19:08,,GC44916111322,1
samewida@sbcglobal.net,Happy Chef Uniforms,$5 Back 10/12/15,40,40,10/12/15 19:08,,GC15696475137,1
stevensflagg@gmail.com,Happy Chef Uniforms,$5 Back 10/12/15,40,40,10/12/15 19:08,,GC64020773582,1
jasmalone919@gmail.com,Happy Chef Uniforms,$5 Back 10/12/15,40,40,10/12/15 19:08,,GC31882543824,1
tammyshaver@hotmail.com,Happy Chef Uniforms,$5 Back 10/12/15,40,40,10/12/15 19:08,,GC52272585635,1
dwitherspoon@gideontoal-ms.com,Happy Chef Uniforms,$5 Back 10/12/15,40,40,10/12/15 19:08,,GC71118375913,1
cheframos80@gmail.com,Happy Chef Uniforms,$5 Back 10/12/15,40,40,10/12/15 19:08,,GC93036127742,1
todoeconomicocabimas@gmail.com,Happy Chef Uniforms,$5 Back 10/12/15,40,40,10/12/15 19:08,,GC97811042271,1
todoeconomicocabimas@gmail.com,Happy Chef Uniforms,$5 Back 10/12/15,40,40,10/12/15 19:08,,GC12641628369,1
rrward@aol.com,Happy Chef Uniforms,$5 Back 10/12/15,40,40,10/12/15 19:08,,GC29772349272,1
scot@dantannas.com,Happy Chef Uniforms,$5 Back 10/12/15,40,40,10/12/15 19:08,,GC26568832044,1
mklocinski@bocabaypassclub.com,Happy Chef Uniforms,$5 Back 10/12/15,40,40,10/12/15 19:08,,GC31252761524,1
jhill2@interact.ccsd.net,Happy Chef Uniforms,$5 Back 10/12/15,40,40,10/12/15 19:08,,GC90924990147,1
info@marioskitchen.ca,Happy Chef Uniforms,$5 Back 10/12/15,40,40,10/12/15 19:08,,GC57980778056,1
wcornell@cableone.net,Happy Chef Uniforms,$5 Back 10/12/15,40,40,10/12/15 19:08,,GC59077099130,1
barbasicstt@gmail.com,Happy Chef Uniforms,$5 Back 10/12/15,40,40,10/12/15 19:08,,GC93113970362,1
chefwilliamelzy@yahoo.com,Happy Chef Uniforms,$5 Back 10/12/15,40,40,10/12/15 19:08,,GC18391668091,1
crystal.gonzales@roswell.enmu.edu,Happy Chef Uniforms,$5 Back 10/12/15,40,40,10/12/15 19:08,,GC98384962582,1
rachel.brown@questfms.com,Happy Chef Uniforms,$5 Back 10/12/15,40,40,10/12/15 19:08,,GC43543225390,1
tlangevin@evergreenknoll.net,Happy Chef Uniforms,$5 Back 10/12/15,40,40,10/12/15 19:08,,GC08380933329,1
atmooney@me.com,Happy Chef Uniforms,$5 Back 10/12/15,40,40,10/12/15 19:08,,GC97363052128,1
ron@chiliwilli.com,Happy Chef Uniforms,$5 Back 10/12/15,40,40,10/12/15 19:08,,GC52652295859,1
munzkd@morrisville.edu,Happy Chef Uniforms,$5 Back 10/12/15,40,40,10/12/15 19:08,,GC73962984794,1
mleonard@rittenhousesl.com,Happy Chef Uniforms,$5 Back 10/12/15,40,40,10/12/15 19:08,,GC17917479937,1
zarokostasrealty111@verizon.net,Happy Chef Uniforms,$5 Back 10/12/15,40,40,10/12/15 19:08,,GC35144470738,1
strexler@bridgingcommunities.k12.va.us,Happy Chef Uniforms,$5 Back 10/12/15,40,40,10/12/15 19:08,,GC47892087667,1
lanem@roosterrun.com,Happy Chef Uniforms,$5 Back 10/12/15,40,40,10/12/15 19:08,,GC54215510340,1
brad@cincinnaticatering.com,Happy Chef Uniforms,$5 Back 10/12/15,40,40,10/12/15 19:08,,GC73780350025,1
chef@kinkead.com,Happy Chef Uniforms,$5 Back 10/12/15,40,40,10/12/15 19:08,,GC10199234616,1
sheri.scheffert@luthermanor.com,Happy Chef Uniforms,$5 Back 10/12/15,40,40,10/12/15 19:08,,GC07919887076,1
kas5gd@virginia.edu,Happy Chef Uniforms,$5 Back 10/12/15,40,40,10/12/15 19:08,,GC16578147234,1
jason@buckingham-farms.com,Happy Chef Uniforms,$5 Back 10/12/15,40,40,10/12/15 19:08,,GC67957873068,1
sa3martin@gmail.com,Happy Chef Uniforms,$5 Back 10/12/15,40,40,10/12/15 19:08,,GC63641279581,1
roseann.pfander@neuhausinc.com,Happy Chef Uniforms,$5 Back 10/12/15,40,40,10/12/15 19:08,,GC69942840967,1
cwilshire@hollingsworthcos.com,Happy Chef Uniforms,$5 Back 10/12/15,40,40,10/12/15 19:08,,GC07374362811,1
cwilshire@hollingsworthcos.com,Happy Chef Uniforms,$5 Back 10/12/15,40,40,10/12/15 19:08,,GC85352353789,1
cwilshire@hollingsworthcos.com,Happy Chef Uniforms,$5 Back 10/12/15,40,40,10/12/15 19:08,,GC48841002131,1
cwilshire@hollingsworthcos.com,Happy Chef Uniforms,$5 Back 10/12/15,40,40,10/12/15 19:08,,GC91482105246,1
rick2today@yahoo.com,Happy Chef Uniforms,$5 Back 10/12/15,40,40,10/12/15 19:08,,GC63398314568,1
dangelo@geneseo.edu,Happy Chef Uniforms,$5 Back 10/12/15,40,40,10/12/15 19:08,,GC64111183735,1
rflores@cooperhoteldallas.com,Happy Chef Uniforms,$5 Back 10/12/15,40,40,10/12/15 19:08,,GC48564172726,1
hehohop@cox.net,Happy Chef Uniforms,$5 Back 10/12/15,40,40,10/12/15 19:08,,GC09047447825,1
mwilliam@valleytech.k12.ma.us,Happy Chef Uniforms,$5 Back 10/12/15,40,40,10/12/15 19:08,,GC01210890562,1
jsizemore@smaservices.net,Happy Chef Uniforms,$5 Back 10/12/15,40,40,10/12/15 19:08,,GC45879123076,1
glosterc@sbregional.org,Happy Chef Uniforms,$5 Back 10/12/15,40,40,10/12/15 19:08,,GC28848876517,1
walkersgrill@walkersgrill.com,Happy Chef Uniforms,$5 Back 10/12/15,40,40,10/12/15 19:08,,GC37590121963,1
henningk@ccl.org,Happy Chef Uniforms,$5 Back 10/12/15,40,40,10/12/15 19:08,,GC44515614617,1
chris@athenscountryclub.org,Happy Chef Uniforms,$5 Back 10/12/15,40,40,10/12/15 19:08,,GC41936693179,1
michellesmit80@yahoo.com,Happy Chef Uniforms,$5 Back 10/12/15,40,40,10/12/15 19:08,,GC40834403286,1
vanlin86@hotmail.com,Happy Chef Uniforms,$5 Back 10/12/15,3.25,40,10/12/15 19:08,,GC91051677916,1
ssluck@docmagrogans.com,Happy Chef Uniforms,$5 Back 10/12/15,40,40,10/12/15 19:08,,GC72665984298,1
simplyserving2005@gmail.com,Happy Chef Uniforms,$5 Back 10/12/15,40,40,10/12/15 19:08,,GC57790551740,1
edshelton@etmc.org,Happy Chef Uniforms,$5 Back 10/12/15,40,40,10/12/15 19:08,,GC98719023740,1
chefleger@gmail.com,Happy Chef Uniforms,$5 Back 10/12/15,40,40,10/12/15 19:08,,GC65849685674,1
laurel@saintdinette.com,Happy Chef Uniforms,$5 Back 10/12/15,40,40,10/12/15 19:08,,GC80928626988,1
stark_911@yahoo.com,Happy Chef Uniforms,$5 Back 10/12/15,40,40,10/12/15 19:08,,GC98939264549,1
miguelg@beyondrestgroup.com,Happy Chef Uniforms,$5 Back 10/12/15,40,40,10/12/15 19:08,,GC09291701762,1
rivera_todd01@yahoo.com,Happy Chef Uniforms,$5 Back 10/12/15,40,40,10/12/15 19:08,,GC55311188226,1
kendonmez@yahoo.com,Happy Chef Uniforms,$5 Back 10/12/15,40,40,10/12/15 19:08,,GC97207004458,1
lisawinter.baddog@gmail.com,Happy Chef Uniforms,$5 Back 10/12/15,40,40,10/12/15 19:08,,GC36581196616,1
lucia.castro@hmart.com,Happy Chef Uniforms,$5 Back 10/12/15,40,40,10/12/15 19:08,,GC07616140601,1
yanezrocio4@gmail.com,Happy Chef Uniforms,$5 Back 10/12/15,40,40,10/12/15 19:08,,GC63491754762,1
jhongutierrez1982@yahoo.com,Happy Chef Uniforms,$5 Back 10/12/15,40,40,10/12/15 19:08,,GC69923080186,1
pnmitchener@taylor.edu,Happy Chef Uniforms,$5 Back 10/12/15,40,40,10/12/15 19:08,,GC71860736165,1
jean.pmc5370@gmail.com,Happy Chef Uniforms,$5 Back 10/12/15,40,40,10/12/15 19:08,,GC55116265977,1
thechiquis244@gmail.com,Happy Chef Uniforms,$5 Back 10/12/15,40,40,10/12/15 19:08,,GC37162948268,1
dmays@bhsi.com,Happy Chef Uniforms,$5 Back 10/12/15,40,40,10/12/15 19:08,,GC28356707198,1
basilwilliston@yahoo.com,Happy Chef Uniforms,$5 Back 10/12/15,40,40,10/12/15 19:08,,GC18536665099,1
jessi_ks@yahoo.com,Happy Chef Uniforms,$5 Back 10/12/15,40,40,10/12/15 19:08,,GC46494745621,1
rebecca.meza@pihhealth.org,Happy Chef Uniforms,$5 Back 10/12/15,40,40,10/12/15 19:08,,GC83403062332,1
kerry.knez.logan@gmail.com,Happy Chef Uniforms,$5 Back 10/12/15,40,40,10/12/15 19:08,,GC64415738637,1
rmelgarejo@erickson.com,Happy Chef Uniforms,$5 Back 10/12/15,40,40,10/12/15 19:08,,GC36972730940,1
contact@epicureanlv.com,Happy Chef Uniforms,$5 Back 10/12/15,40,40,10/12/15 19:08,,GC71404562874,1
dhorne@reynoldsplantation.com,Happy Chef Uniforms,$5 Back 10/12/15,40,40,10/12/15 19:08,,GC78590658198,1
trprojects@shaw.ca,Happy Chef Uniforms,$5 Back 10/12/15,40,40,10/12/15 19:08,,GC62957569582,1
dischb@parknicollet.com,Happy Chef Uniforms,$5 Back 10/12/15,40,40,10/12/15 19:08,,GC70844872819,1
brentnadig@yahoo.com,Happy Chef Uniforms,$5 Back 10/12/15,40,40,10/12/15 19:08,,GC85127002049,1
david.gardner@tricountytech.edu,Happy Chef Uniforms,$5 Back 10/12/15,40,40,10/12/15 19:08,,GC39347130167,1
jeffsn@dutchwayfarmmarket.com,Happy Chef Uniforms,$5 Back 10/12/15,40,40,10/12/15 19:08,,GC81789924457,1
jeffsn@dutchwayfarmmarket.com,Happy Chef Uniforms,$5 Back 10/12/15,40,40,10/12/15 19:08,,GC83901815702,1
masharan.noble@yahoo.com,Happy Chef Uniforms,$5 Back 10/12/15,40,40,10/12/15 19:08,,GC99339464052,1
aburns@sumterplace.com,Happy Chef Uniforms,$5 Back 10/12/15,40,40,10/12/15 19:08,,GC52776994706,1
887delias@gmail.com,Happy Chef Uniforms,$5 Back 10/12/15,40,40,10/12/15 19:08,,GC18819675791,1
cathleen.chartier@lovett.org,Happy Chef Uniforms,$5 Back 10/12/15,40,40,10/12/15 19:08,,GC95050440580,1
lidiam316@gmail.com,Happy Chef Uniforms,$5 Back 10/12/15,40,40,10/12/15 19:08,,GC35831280347,1
parkj@conwayschools.info,Happy Chef Uniforms,$5 Back 10/12/15,40,40,10/12/15 19:08,,GC67924467432,1
rick2today@yahoo.com,Happy Chef Uniforms,$5 Back 10/12/15,40,40,10/12/15 19:08,,GC95720590108,1
mrjoey60@gmail.com,Happy Chef Uniforms,$5 Back 10/12/15,40,40,10/12/15 19:08,,GC96770316571,1
raizajimenezn4@gmail.com,Happy Chef Uniforms,$5 Back 10/12/15,40,40,10/12/15 19:08,,GC95220202675,1
sheryl.tiedt@wartburg.edu,Happy Chef Uniforms,$5 Back 10/12/15,40,40,10/12/15 19:08,,GC05151024648,1
luann@bergenassociates.com,Happy Chef Uniforms,$5 Back 10/12/15,40,40,10/12/15 19:08,,GC86008656368,1
mkillian@auburn.wednet.edu,Happy Chef Uniforms,$5 Back 10/12/15,40,40,10/12/15 19:08,,GC54268626357,1
zal28@yahoo.com,Happy Chef Uniforms,$5 Back 10/12/15,40,40,10/12/15 19:08,,GC94946979928,1
farmhouse@veritasfarmhouse.com,Happy Chef Uniforms,$5 Back 10/12/15,40,40,10/12/15 19:08,,GC11646689999,1
jimmydonlin42@gmail.com,Happy Chef Uniforms,$5 Back 10/12/15,40,40,10/12/15 19:08,,GC73576935634,1
bearoned@me.com,Happy Chef Uniforms,$5 Back 10/12/15,15,15,10/12/15 19:08,,GC79116995579,1
