103740050,LOGO-ROCCOBAR       ,16209,ROCCOSBAR.jpg
103740056,LOGO-PAULIES        ,2066,Paulies.jpg
103740401,LOGO-HILTONGARDEN   ,3598,HiltonGarden.jpg
103740590,LOGO-PROVISION      ,4575,PROVISION.jpg
103742118,LOGO-OUTBACK2       ,3761,OUTBACK2.JPG
103742197,LOGO-SEASONSJAPAN   ,6427,SEASONSJAPAN.jpg
103742625,LOGO-FATHERSTABLE   ,6365,FathersTable.jpg
103742791,LOGO-PAVILLON       ,3615,PAVILLON.jpg
103742869,LOGO-BONEFISH       ,7402,BONEFISH.jpg
103743385,LOGO-CHEFSMARKET    ,6152,CHEFSMARKET.JPG
103743870,LOGO-ROCKWOOD       ,5701,ROCKWOOD.jpg
103744350,LOGO-APPLEBEES      ,2891,APPLEBEES.JPG
103745034,LOGO-MORRISAUX2     ,4790,MORRISAUX2.jpg
103745547,LOGO-ROCKWOOD       ,5701,ROCKWOOD.jpg
103745823,LOGO-UPSCALEGTWY    ,3354,UPSCALEGTWY.jpg
103746208,LOGO-GREENFIELDSEN2 ,6302,GREENFIELDSEN2.jpg
103746360,LOGO-DAVEBUSTERS    ,10683,DaveBusters.jpg
103746908,LOGO-APOLLONIA2     ,4988,APOLLONIA2.jpg
103749611,LOGO-HEALTHCARESG   ,3348,HEALTHCARESG.jpg
103750162,LOGO-DAYTON         ,1946,DAYTON.jpg
103750758,LOGO-WAYNEHEALTH    ,6042,WAYNEHEALTH.jpg
103751234,LOGO-GREENFIELDSEN2 ,6302,GREENFIELDSEN2.jpg
103751329,LOGO-TSUBAKI        ,2988,Tsubaki.jpg
103751659,LOGO-DANCINGTOMATO  ,4973,DANCINGTOMATO.jpg
103751842,LOGO-CHEFSMARKET    ,6152,CHEFSMARKET.JPG
103751986,LOGO-FEEDMORE       ,4461,FEEDMORE.jpg
103752265,LOGO-IHOP           ,5153,IHOP.JPG
103753291,LOGO-OLYBEES        ,4320,OLYBEES.jpg
103753449,LOGO-APPLEBEES      ,2891,APPLEBEES.JPG
103753488,LOGO-APPLEBEES      ,2891,APPLEBEES.JPG
103753531,LOGO-CHILISDINING   ,3231,ChilisDining.jpg
103753903,LOGO-DAYTON         ,1946,DAYTON.jpg
103754315,LOGO-APPLEBEES      ,2891,APPLEBEES.JPG
103754612,LOGO-PALMCOTTAGES   ,3536,PALMCOTTAGES.jpg
103754652,LOGO-GRILLEDADD     ,19263,GRILLEDADD.jpg
103755373,LOGO-GREATLAKES     ,5586,GREATLAKES.jpg
103755461,LOGO-SALSAST        ,6465,SALSAST.jpg
103755952,LOGO-GREENFIELDSEN2 ,6302,GREENFIELDSEN2.jpg
103756128,LOGO-APPLEBEES      ,2891,APPLEBEES.JPG
103756452,LOGO-BWW            ,7314,BWW.jpg
103756531,LOGO-FLATIRONROOM   ,3244,FLATIRONROOM.jpg
103757354,LOGO-DOWNTOWNGC     ,10263,DOWNTOWNGC.jpg
103757469,LOGO-APPLEBEES      ,2891,APPLEBEES.JPG
103758460,LOGO-CALIFORNIAGA   ,3296,CALIFORNIAGA.jpg
103758592,LOGO-CCLR1902       ,12341,CCLR1902.jpg
103758964,LOGO-PFCHANGSIRSI   ,4273,PFCHANGSIRSI.jpg
103759098,LOGO-SEASONSJAPAN   ,6427,SEASONSJAPAN.jpg
103760389,LOGO-TWINPEAKS      ,4528,TwinPeaks.jpg
103760407,LOGO-PAVILLON       ,3615,PAVILLON.jpg
103760623,LOGO-TWINPEAKS      ,4528,TwinPeaks.jpg
103739530,LOGO-ELPASOCC       ,10648,Elpasocc.jpg
103740029,LOGO-OUTBACK2       ,3761,OUTBACK2.JPG
103741359,LOGO-TSUBAKI        ,2988,Tsubaki.jpg
103741451,LOGO-GOLDENCORRAL3  ,3605,GoldenCorral3.jpg
103741554,LOGO-MASTERCATER    ,4447,MASTERCATER.jpg
103741850,LOGO-BAUMS          ,2600,BAUMS.JPG
103742041,LOGO-SPRINGARBOR    ,8694,SPRINGARBOR.jpg
103742049,LOGO-REDLOBSTER     ,7196,RedLobster.jpg
103742088,LOGO-GRILLE459      ,2513,GRILLE459.jpg
103742152,LOGO-DOWNTOWNGC     ,10263,DOWNTOWNGC.jpg
103742459,LOGO-OUTBACK2       ,3761,OUTBACK2.JPG
103743787,LOGO-POMONA         ,4732,POMONA.jpg
103744116,LOGO-ASTONGARDENS   ,4046,AstonGardens.jpg
103744456,LOGO-PFCHANGSIRSI   ,4273,PFCHANGSIRSI.jpg
103744959,LOGO-GAUMENKITZEL   ,2596,Gaumenkitzel.jpg
103745110,LOGO-BJS            ,8878,BJS.jpg
103745397,LOGO-LEGACYSLC      ,10072,LEGACYSLC.jpg
103745567,LOGO-VGECAFE        ,9901,VgeCafe.jpg
103745997,LOGO-APPLEBEESTLC   ,3284,APPLEBEESTLC.jpg
103746005,LOGO-MADISON        ,5037,MADISON.jpg
103746371,LOGO-GREENFIELDSEN2 ,6302,GREENFIELDSEN2.jpg
103746827,LOGO-CHAMARD        ,10843,CHAMARD.jpg
103747675,LOGO-APPLEBEES      ,2891,APPLEBEES.JPG
103748237,LOGO-LEGACYSLC      ,10072,LEGACYSLC.jpg
103749652,LOGO-REDLOBSTER     ,7196,RedLobster.jpg
103749949,LOGO-DAVEBUSTERS    ,10683,DaveBusters.jpg
103749981,LOGO-PINNACLE       ,2418,pinnacle.jpg
103751259,LOGO-CHARTWELLS2    ,3466,Chartwells2.jpg
103751551,LOGO-SUSANGAGE      ,2321,SUSANGAGE.JPG
103752465,LOGO-DAYTON         ,1946,DAYTON.jpg
103752471,LOGO-BONEFISH       ,7402,BONEFISH.jpg
103752997,LOGO-SOULFULL       ,3608,SOULFULL.jpg
103753507,LOGO-RUBYTUESDAY    ,1789,RUBYTUESDAY.JPG
103753906,LOGO-DAYTON         ,1946,DAYTON.jpg
103754391,LOGO-BLACKANGUS     ,4462,BlackAngus.jpg
103754606,LOGO-DAVEBUSTERS    ,10683,DaveBusters.jpg
103754652,LOGO-WANDERING      ,6166,WANDERING.jpg
103754899,LOGO-CATHEDRALCAFE  ,7874,CATHEDRALCAFE.jpg
103755371,LOGO-GREATLAKES     ,5586,GREATLAKES.jpg
103755461,LOGO-FIESTAGRILL    ,13136,FIESTAGRILL.jpg
103756044,LOGO-PELIPELI       ,5549,PeliPeli.jpg
103756047,LOGO-OUTBACK2       ,3761,OUTBACK2.JPG
103756085,LOGO-APPLEBEES      ,2891,APPLEBEES.JPG
103756305,LOGO-JEKYLL         ,3485,JEKYLL.jpg
103756906,LOGO-JOHNNYSITALIAN ,3644,JOHNNYSITALIAN.JPG
103757659,LOGO-DAVEBUSTERS    ,10683,DaveBusters.jpg
103757738,LOGO-BONEFISH       ,7402,BONEFISH.jpg
103758060,LOGO-BESTWEST       ,7030,BESTWESTERN.JPG
103759357,LOGO-MCDONALDS2     ,749,MCDONALDS2.jpg
103759370,LOGO-PFCHANGSIRSI   ,4273,PFCHANGSIRSI.jpg
103761293,LOGO-BAUMS          ,2600,BAUMS.JPG
103761372,LOGO-OUTBACK2       ,3761,OUTBACK2.JPG
103761524,LOGO-OUTBACK2       ,3761,OUTBACK2.JPG
103762301,LOGO-DOWNTOWNGC     ,10263,DOWNTOWNGC.jpg
103762790,LOGO-CATHEDRAL      ,8552,CATHEDRAL.jpg
103762833,LOGO-EINSTEINNOAH   ,11146,EINSTEINNOAH.jpg
103763590,LOGO-CHEFLARA       ,8774,CHEFLARA.jpg
103763628,LOGO-SCHENECTADYCCC ,10204,SCHENECTADYCCC.JPG
103763786,LOGO-XANTERRA       ,4136,XANTERRA.jpg
103764051,LOGO-DARIUS         ,5459,DARIUS.jpg
103764309,LOGO-RHNO           ,3571,RHNO.jpg
103764892,LOGO-RHNO           ,3571,RHNO.jpg
103765297,LOGO-VGECAFE        ,9901,VgeCafe.jpg
103765559,LOGO-OUTBACK2       ,3761,OUTBACK2.JPG
103765891,LOGO-APPLEBEES      ,2891,APPLEBEES.JPG
103765984,LOGO-EDIBLES        ,6969,edibles.jpg
103766016,LOGO-CATHEDRAL      ,8552,CATHEDRAL.jpg
103766138,LOGO-OUTBACK2       ,3761,OUTBACK2.JPG
103766159,LOGO-ARAMARK1       ,1304,ARAMARK1.jpg
103767473,LOGO-SUSHIKUDASAI   ,9201,SUSHIKUDASAI.jpg
103767691,LOGO-OUTBACK2       ,3761,OUTBACK2.JPG
103768547,LOGO-MAGGIANOS      ,4132,MAGGIANOS.JPG
103768552,LOGO-LEGACYSLC      ,10072,LEGACYSLC.jpg
103768802,LOGO-DAYTON         ,1946,DAYTON.jpg
103768902,LOGO-POMONA         ,4732,POMONA.jpg
103768944,LOGO-FATZCAFE       ,5060,FATZCAFE.jpg
103769277,LOGO-EINSTEINNOAH   ,11146,EINSTEINNOAH.jpg
103770019,LOGO-STERLING       ,7077,STERLING.jpg
103770169,LOGO-PFCHANGSIRSI2  ,2675,PFCHANGSIRSI2.jpg
103770561,LOGO-LEGACYSLC      ,10072,LEGACYSLC.jpg
103770610,LOGO-HILTONGARDEN   ,3598,HiltonGarden.jpg
103771562,LOGO-APPLEBEES      ,2891,APPLEBEES.JPG
103771891,LOGO-PINNACLE       ,2418,pinnacle.jpg
103772800,LOGO-CHEFJES        ,4529,CHEFJES.jpg
103772809,LOGO-KEYIMPACT      ,11370,KeyImpact.jpg
103772932,LOGO-BUTTERFLYBAKE  ,5719,BUTTERFLYBAKE.jpg
103773004,LOGO-OUTBACK2       ,3761,OUTBACK2.JPG
103773020,LOGO-OTBMEX         ,11251,OTBMEX.jpg
103774127,LOGO-CHILISDINING   ,3231,ChilisDining.jpg
103775929,LOGO-OUTBACK2       ,3761,OUTBACK2.JPG
103778712,LOGO-MEADOWSMERCY   ,3536,MEADOWSMERCY.jpg
103779747,LOGO-SJC2           ,5198,SJC2.jpg
103780207,LOGO-APPLEBEES      ,2891,APPLEBEES.JPG
103780912,LOGO-CHARTWELLS2    ,3466,Chartwells2.jpg
103781101,LOGO-BONEFISH       ,7402,BONEFISH.jpg
103781355,LOGO-SEASONSJAPAN   ,6427,SEASONSJAPAN.jpg
103781372,LOGO-MACYS1         ,1911,MACYS1.JPG
103781409,LOGO-BOONSBOROCC    ,6213,BoonsboroCC.jpg
103781805,LOGO-APPLEBEES      ,2891,APPLEBEES.JPG
103782184,LOGO-AMERICANEDDIE  ,15294,AMERICAEDDIE.jpg
103761150,LOGO-JOHNNYSITALIAN ,3644,JOHNNYSITALIAN.JPG
103761372,LOGO-OUTBACKTAG     ,1557,OUTBACKTAG.jpg
103761477,LOGO-BLUFFTON       ,7888,BLUFFTON.jpg
103761981,LOGO-CULINARYVISIONS,15397,CulinaryVisions.jpg
103762229,LOGO-APPLEBEES      ,2891,APPLEBEES.JPG
103762829,LOGO-FEEDMORE       ,4461,FEEDMORE.jpg
103762941,LOGO-CHILISDINING   ,3231,ChilisDining.jpg
103763383,LOGO-CHILISDINING   ,3231,ChilisDining.jpg
103764489,LOGO-APPLEBEES      ,2891,APPLEBEES.JPG
103764588,LOGO-SEASONSJAPAN   ,6427,SEASONSJAPAN.jpg
103765124,LOGO-CATHEDRAL      ,8552,CATHEDRAL.jpg
103765197,LOGO-BOSTONPIZZA    ,11196,BostonsPizza.jpg
103765605,LOGO-BONEFISH       ,7402,BONEFISH.jpg
103765662,LOGO-RAINRRT        ,7741,RAINRRT.jpg
103766082,LOGO-DAYTON         ,1946,DAYTON.jpg
103766115,LOGO-ERICKLINDENPO  ,3861,ErickLindenPo.jpg
103766556,LOGO-VILLAGTAV1     ,1639,VILLAGETAVERN.JPG
103766681,LOGO-OUTBACK2       ,3761,OUTBACK2.JPG
103767203,LOGO-LARRYSII       ,4699,LARRYSII.JPG
103767239,LOGO-BLUMOON        ,3047,BLUMOON.JPG
103767262,LOGO-BRUNCHREST     ,8498,BRUNCHREST.jpg
103767481,LOGO-SUSHIKUDASAI   ,9201,SUSHIKUDASAI.jpg
103768002,LOGO-BONEFISH       ,7402,BONEFISH.jpg
103768550,LOGO-LEGACYSLC      ,10072,LEGACYSLC.jpg
103768619,LOGO-ALDENTE        ,18808,ALDENTE.jpg
103768714,LOGO-OUTBACK2       ,3761,OUTBACK2.JPG
103768859,LOGO-PRIMESMOKE     ,6213,PRIMESMOKE.jpg
103768880,LOGO-ERICKMARISGR   ,1655,ErickMarisGr.jpg
103769390,LOGO-STERLING       ,7077,STERLING.jpg
103769863,LOGO-OTBMEX         ,11251,OTBMEX.jpg
103770183,LOGO-CHILISDINING   ,3231,ChilisDining.jpg
103770506,LOGO-BUFFALOBILL    ,5945,BUFFALOBILL.jpg
103770793,LOGO-GROUNDROUND    ,12332,GROUNDROUND.jpg
103770868,LOGO-FIRSTWATCH     ,5505,FirstWatch.jpg
103770976,LOGO-DOWNTOWNGC     ,10263,DOWNTOWNGC.jpg
103772168,LOGO-SPRINGLIVING   ,5906,SPRINGLIVING.jpg
103772299,LOGO-TSUBAKI        ,2988,Tsubaki.jpg
103772700,LOGO-CHEFJES        ,4529,CHEFJES.jpg
103773839,LOGO-APPLEBEES      ,2891,APPLEBEES.JPG
103774017,LOGO-OLIVEGARDEN    ,6167,OliveGarden.jpg
103774123,LOGO-TNSTATEPARK    ,8159,TNSTATEPARK.jpg
103774349,LOGO-WESTMINSTER    ,4029,WESTMINSTER.jpg
103774481,LOGO-PFCHANGSIRSI2  ,2675,PFCHANGSIRSI2.jpg
103775232,LOGO-HILTONGARDEN   ,3598,HiltonGarden.jpg
103775393,LOGO-PAULIES        ,2066,Paulies.jpg
103775573,LOGO-OCHARLEY1      ,4153,OCharley1.jpg
103776374,LOGO-BLUMOON        ,3047,BLUMOON.JPG
103777012,LOGO-GUSS           ,16559,GUSS.jpg
103778671,LOGO-CATHEDRAL      ,8552,CATHEDRAL.jpg
103778890,LOGO-WOODWARDEDU    ,5127,WOODWARDEDU.jpg
103782234,LOGO-SPRINGLIVING   ,5906,SPRINGLIVING.jpg
103782474,LOGO-OLIVEGARDEN    ,6167,OliveGarden.jpg
103782570,LOGO-OUTBACK2       ,3761,OUTBACK2.JPG
103783971,LOGO-APPLEBEES      ,2891,APPLEBEES.JPG
103784071,LOGO-PFCHANGSIRSI   ,4273,PFCHANGSIRSI.jpg
103784875,LOGO-ZCREPES        ,3990,ZCREPES.jpg
103785044,LOGO-PROABITION     ,4354,Proabition.jpg
103786208,LOGO-CATHEDRAL      ,8552,CATHEDRAL.jpg
103786726,LOGO-DAVEBUSTERS    ,10683,DaveBusters.jpg
103786933,LOGO-APPLEBEES      ,2891,APPLEBEES.JPG
103786957,LOGO-BONEFISH       ,7402,BONEFISH.jpg
103787272,LOGO-GUSS           ,16559,GUSS.jpg
103787426,LOGO-SOUTHFORK      ,2189,SOUTHFORK.jpg
103788258,LOGO-CHILISDINING   ,3231,ChilisDining.jpg
103788687,LOGO-OUTBACK2       ,3761,OUTBACK2.JPG
103789235,LOGO-PINNACLE       ,2418,pinnacle.jpg
103789705,LOGO-MRCHICKEN      ,6128,MRCHIKEN.jpg
103790187,LOGO-CATHEDRAL      ,8552,CATHEDRAL.jpg
103790317,LOGO-BILLYCASPER    ,5097,BILLYCASPER.jpg
103790389,LOGO-BISTECCA       ,7928,BISTECCA.jpg
103790795,LOGO-MAGGIANOS      ,4132,MAGGIANOS.JPG
103791014,LOGO-BJS            ,8878,BJS.jpg
103791300,LOGO-OLIVEGARDEN    ,6167,OliveGarden.jpg
103791597,LOGO-PRIMESMOKE     ,6213,PRIMESMOKE.jpg
103792094,LOGO-SAVOR          ,1564,SAVOR.JPG
103792213,LOGO-CHILISDINING   ,3231,ChilisDining.jpg
103792247,LOGO-MADISON        ,5037,MADISON.jpg
103793416,LOGO-ASTONGARDENS   ,4046,AstonGardens.jpg
103793446,LOGO-12STCATERING   ,5049,12STCATERING.JPG
103794391,LOGO-APPLEBEES      ,2891,APPLEBEES.JPG
103794538,LOGO-SEN            ,4726,SEN.JPG
103794751,LOGO-CHILISDINING   ,3231,ChilisDining.jpg
103794807,LOGO-BONEFISH       ,7402,BONEFISH.jpg
103794834,LOGO-MARIOS         ,1132,MARIOS.jpg
103794908,LOGO-OUTBACK2       ,3761,OUTBACK2.JPG
103794964,LOGO-CHOCOFETISH    ,2980,CHOCOFETISH.jpg
103794987,LOGO-DRAGONFLY      ,2895,DRAGONFLY.JPG
103795123,LOGO-LHKNOXVILLE    ,3472,LHKNOXVILLE.jpg
103795414,LOGO-OUTBACK2       ,3761,OUTBACK2.JPG
103795705,LOGO-APPLEBEES      ,2891,APPLEBEES.JPG
103797146,LOGO-VIPSCATERING   ,3170,VIPSCatering.jpg
103797204,LOGO-CUTTINGBOARDS  ,6530,CUTTINGBOARDS.jpg
103797397,LOGO-GLACIERHILLS   ,2999,GLACIERHILLS.jpg
103797999,LOGO-OUTBACK2       ,3761,OUTBACK2.JPG
103798148,LOGO-OUTBACK2       ,3761,OUTBACK2.JPG
103798167,LOGO-BRIARWOODHAT   ,3039,BriarwoodHat.jpg
103798697,LOGO-LEGACYSLC      ,10072,LEGACYSLC.jpg
103798699,LOGO-LEGACYSLC      ,10072,LEGACYSLC.jpg
103798848,LOGO-PLANTPURE      ,3019,PLANTPURE.jpg
103798848,LOGO-PLANTPURE2     ,6163,PLANTPURE2.jpg
103798971,LOGO-DAVEBUSTERS    ,10683,DaveBusters.jpg
103799129,LOGO-LEGACYSLC      ,10072,LEGACYSLC.jpg
103800374,LOGO-FRESHIDEAS     ,3802,FreshIdeas.jpg
103800578,LOGO-CHILISDINING   ,3231,ChilisDining.jpg
103801260,LOGO-PAVILLON       ,3615,PAVILLON.jpg
103801315,LOGO-SIXSOUTH       ,4271,SIXSOUTH.jpg
103801826,LOGO-APPLEBEES      ,2891,APPLEBEES.JPG
103802666,LOGO-POMONA         ,4732,POMONA.jpg
103802695,LOGO-OTBMEX         ,11251,OTBMEX.jpg
103802811,LOGO-DAVEBUSTERS    ,10683,DaveBusters.jpg
103803046,LOGO-OUTBACK2       ,3761,OUTBACK2.JPG
103803051,LOGO-SEASONSJAPAN   ,6427,SEASONSJAPAN.jpg
103803361,LOGO-PIQUANT        ,13703,Piquant.jpg
103803486,LOGO-ELPASOCC       ,10648,Elpasocc.jpg
103803828,LOGO-DINERSCHOICE   ,4879,DINERSCHOICE.jpg
103804359,LOGO-STRANO         ,4242,STRANO.jpg
103804464,LOGO-PROSTART       ,5474,PROSTART.JPG
103804652,LOGO-ELPASOCC       ,10648,Elpasocc.jpg
103804677,LOGO-IGUANANY1      ,5126,IguanaNY1.jpg
103805722,LOGO-BAUMS          ,2600,BAUMS.JPG
103806406,LOGO-LEGACYSLC      ,10072,LEGACYSLC.jpg
103807221,LOGO-CHILISDINING   ,3231,ChilisDining.jpg
103807516,LOGO-W              ,528,W.jpg
103807830,LOGO-LEGACYSLC      ,10072,LEGACYSLC.jpg
103808400,LOGO-VGECAFE        ,9901,VgeCafe.jpg
103808778,LOGO-CHEFJES        ,4529,CHEFJES.jpg
103809006,LOGO-AVENUE2016     ,4504,AVENUE2016.jpg
103809058,LOGO-TRIOMPHE       ,2925,TRIOMPHE.jpg
103809288,LOGO-POSHNOSH       ,3977,POSHNOSH.jpg
103810055,LOGO-DAVEBUSTERS    ,10683,DaveBusters.jpg
103810612,LOGO-GUSS           ,16559,GUSS.jpg
103810750,LOGO-OUTBACK2       ,3761,OUTBACK2.JPG
103812070,LOGO-APPLEBEES      ,2891,APPLEBEES.JPG
103813027,LOGO-MIMISCAFECO    ,2250,MimisCafeCo.jpg
103813033,LOGO-BONEFISH       ,7402,BONEFISH.jpg
103813995,LOGO-KRIPALU2       ,3500,Kripalu2.jpg
103814532,LOGO-POMONA         ,4732,POMONA.jpg
103814534,LOGO-PRAIRIE        ,9053,PRAIRIE.jpg
103814824,LOGO-GSLADINC       ,6001,GSLADInc.jpg
103815288,LOGO-BONEFISH       ,7402,BONEFISH.jpg
103815589,LOGO-NHCULINARY     ,4533,NHCULINARY.jpg
103815592,LOGO-CHILISDINING   ,3231,ChilisDining.jpg
103816742,LOGO-VINEYARDINN    ,4878,VineyardInn.jpg
103816829,LOGO-BELLEVANS      ,2027,BellEvans.jpg
103817235,LOGO-HGSPLYCO       ,3707,HGSPLYCO.jpg
103817502,LOGO-RAMBLINGOAKS   ,7109,RAMBLINGOAKS.jpg
103817785,LOGO-BONEFISH       ,7402,BONEFISH.jpg
103818477,LOGO-OTB2017        ,3802,OTB2017.jpg
103818567,LOGO-HOLIDAYRETIRE  ,2543,HolidayRetire.jpg
103818735,LOGO-OTB2017        ,3802,OTB2017.jpg
103818735,LOGO-OTBMEX         ,11251,OTBMEX.jpg
103818768,LOGO-DARIUS         ,5459,DARIUS.jpg
103818914,LOGO-APPLEBEES      ,2891,APPLEBEES.JPG
103819292,LOGO-PRESSEDBAR     ,6287,PRESSEDBAR.jpg
103819413,LOGO-DAVEBUSTERS    ,10683,DaveBusters.jpg
103820005,LOGO-ATRIUMCAFE     ,2572,AtriumCafe.jpg
103820650,LOGO-OUTBACK2       ,3761,OUTBACK2.JPG
103820656,LOGO-OUTBACK2       ,3761,OUTBACK2.JPG
103820701,LOGO-OUTBACK2       ,3761,OUTBACK2.JPG
103821114,LOGO-BONEFISH       ,7402,BONEFISH.jpg
103821288,LOGO-CHILISDINING   ,3231,ChilisDining.jpg
103821635,LOGO-STERLING       ,7077,STERLING.jpg
103821700,LOGO-PANERA1        ,3539,PANERA1.JPG
103822174,LOGO-APPLEBEES      ,2891,APPLEBEES.JPG
103822238,LOGO-TESTABARRA     ,4669,Testabarra.jpg
103822417,LOGO-PIQUANT        ,13703,Piquant.jpg
103823083,LOGO-DAYTON         ,1946,DAYTON.jpg
103823344,LOGO-OTB2017        ,3802,OTB2017.jpg
103823347,LOGO-OTB2017        ,3802,OTB2017.jpg
103823497,LOGO-JBALDWINS      ,2697,JBALDWINS.jpg
103823725,LOGO-CHOCOFETISH    ,2980,CHOCOFETISH.jpg
103823792,LOGO-BERKSHIRE      ,1890,BERKSHIRE.jpg
103823801,LOGO-OUTBACK2       ,3761,OUTBACK2.JPG
103823888,LOGO-BONEFISH       ,7402,BONEFISH.jpg
103824300,LOGO-BAKESHOPNY     ,7515,BAKESHOPNY.jpg
103824300,LOGO-LAMI           ,3710,LAMI.jpg
103824434,LOGO-BONEFISH       ,7402,BONEFISH.jpg
103824650,LOGO-SANDBAR        ,4903,SANDBAR.jpg
103824782,LOGO-ATRIUMCAFE     ,2572,AtriumCafe.jpg
103825209,LOGO-CHILISDINING   ,3231,ChilisDining.jpg
103825322,LOGO-BOUCHONSBIST   ,6722,BouchonsBist.jpg
103825394,LOGO-ERICKSON       ,4190,Erickson.jpg
103825673,LOGO-BIGLEAGUE      ,11251,BIGLEAGUE.jpg
103825850,LOGO-BONEFISH       ,7402,BONEFISH.jpg
103826101,LOGO-SPRINGARBOR    ,8694,SPRINGARBOR.jpg
103826398,LOGO-ANNIELICIOUS   ,4274,Annielicious.jpg
103826575,LOGO-PROSTARTNM     ,6021,PROSTARTNM.jpg
103827460,LOGO-CATHEDRAL      ,8552,CATHEDRAL.jpg
103827885,LOGO-PERFORMANCEHIC ,4235,PerformanceHic.jpg
103827915,LOGO-FOSTERFARMS    ,28265,FOSTERFARMS.jpg
103828034,LOGO-OTHOTEL        ,3033,OTHotel.jpg
103828108,LOGO-HILTONGARDEN   ,3598,HiltonGarden.jpg
103828630,LOGO-STMORITZ       ,8154,STMORITZ.jpg
103828694,LOGO-FLOWER         ,9960,Flower.jpg
103829768,LOGO-RUTHSCHRIS     ,6084,RUTHSCHRIS.JPG
103830369,LOGO-OUTBACK2       ,3761,OUTBACK2.JPG
103830371,LOGO-CHILISDINING   ,3231,ChilisDining.jpg
103830421,LOGO-BUFFALOCROSS   ,10683,BUFFALOCROSS.jpg
103831112,LOGO-OUTBACK2       ,3761,OUTBACK2.JPG
103831185,LOGO-WOODWARDEDU    ,5127,WOODWARDEDU.jpg
103779626,LOGO-MCDONALDS      ,2607,MCDONALDS.JPG
103780010,LOGO-DAYTON         ,1946,DAYTON.jpg
103780914,LOGO-ANTONIOSCC     ,4387,ANTONIOSCC.jpg
103780916,LOGO-OUTBACK2       ,3761,OUTBACK2.JPG
103780936,LOGO-OUTBACK2       ,3761,OUTBACK2.JPG
103780944,LOGO-DAYTON         ,1946,DAYTON.jpg
103780954,LOGO-BONEFISH       ,7402,BONEFISH.jpg
103780968,LOGO-BAUMS          ,2600,BAUMS.JPG
103781519,LOGO-PEMBERTON      ,15632,PEMBERTON.jpg
103781538,LOGO-REDLOBSTER     ,7196,RedLobster.jpg
103782165,LOGO-ROMANOS1       ,3756,Romanos1.jpg
103782245,LOGO-OUTBACK2       ,3761,OUTBACK2.JPG
103782739,LOGO-PINNACLE       ,2418,pinnacle.jpg
103782767,LOGO-APPLEBEES      ,2891,APPLEBEES.JPG
103782849,LOGO-STMORITZ       ,8154,STMORITZ.jpg
103782906,LOGO-SUSANGAGE      ,2321,SUSANGAGE.JPG
103782915,LOGO-WECARE         ,8521,WECARE.jpg
103783189,LOGO-DAYTON         ,1946,DAYTON.jpg
103783383,LOGO-NHCULINARY     ,4533,NHCULINARY.jpg
103783544,LOGO-APPLEBEES      ,2891,APPLEBEES.JPG
103783656,LOGO-BIGLEAGUE      ,11251,BIGLEAGUE.jpg
103784449,LOGO-MCDONALDS      ,2607,MCDONALDS.JPG
103784512,LOGO-USFOODS        ,6320,USFOODS.jpg
103784683,LOGO-CHILISDINING   ,3231,ChilisDining.jpg
103784888,LOGO-PUBAMERI       ,5618,PUBAMERI.jpg
103785225,LOGO-ROMANOS1       ,3756,Romanos1.jpg
103785683,LOGO-MESACC         ,2234,MESACC.jpg
103787129,LOGO-SLATES         ,9028,SLATES.jpg
103787410,LOGO-DAYTON         ,1946,DAYTON.jpg
103788317,LOGO-ROMANOS1       ,3756,Romanos1.jpg
103788439,LOGO-OUTBACK2       ,3761,OUTBACK2.JPG
103789874,LOGO-FIRSTWATCH     ,5505,FirstWatch.jpg
103789920,LOGO-DAYTON         ,1946,DAYTON.jpg
103789939,LOGO-TGIFRIDA1      ,8522,tgifridays.jpg
103790632,LOGO-ROMANOS1       ,3756,Romanos1.jpg
103791182,LOGO-OUTBACK2       ,3761,OUTBACK2.JPG
103792055,LOGO-GREENFIELDSEN2 ,6302,GREENFIELDSEN2.jpg
103792451,LOGO-DAYTON         ,1946,DAYTON.jpg
103793344,LOGO-W              ,528,W.jpg
103793389,LOGO-PASTACAFFE     ,7079,PASTACAFFE.jpg
103793900,LOGO-MEADOWSMERCY   ,3536,MEADOWSMERCY.jpg
103793998,LOGO-HILTONGARDEN   ,3598,HiltonGarden.jpg
103794249,LOGO-BIGLEAGUE      ,11251,BIGLEAGUE.jpg
103794311,LOGO-DANCINGTOMATO  ,4973,DANCINGTOMATO.jpg
103794404,LOGO-STERLING       ,7077,STERLING.jpg
103794436,LOGO-POMONA         ,4732,POMONA.jpg
103794630,LOGO-MMFOODS        ,10514,MMFOODS.jpg
103794765,LOGO-COLORADOLSC    ,3392,COLORADOLSC.jpg
103794815,LOGO-GABLES         ,5236,GABLES.jpg
103795034,LOGO-LEGACYSLC      ,10072,LEGACYSLC.jpg
103831455,LOGO-TOASTERY       ,5627,TOASTERY.jpg
103831638,LOGO-IRONHILL       ,3998,IRONHILL.JPG
103832153,LOGO-SODEXHO        ,1790,SODEXO.JPG
103832225,LOGO-DAVEBUSTERS    ,10683,DaveBusters.jpg
103832615,LOGO-SERVSAFE       ,4814,ServSafe.jpg
103832699,LOGO-DAVIDBURKE     ,12888,DavidBurkePri.jpg
103832776,LOGO-OTB2017        ,3802,OTB2017.jpg
103832998,LOGO-OLIVEGARDENIK  ,5762,OLIVEGARDENIK.jpg
103833149,LOGO-SPRINGARBOR    ,8694,SPRINGARBOR.jpg
103833238,LOGO-SURFHOTELBI    ,5759,SurfHotelBI.jpg
103833421,LOGO-DIMAIOCUCINA   ,5169,DimaioCucina.jpg
103833431,LOGO-ZUMBAPICA      ,4348,ZumbaPica.jpg
103833560,LOGO-ROYALLEDROIT   ,3689,RoyalLedroit.jpg
103833701,LOGO-OLIVEGARDEN    ,6167,OliveGarden.jpg
103833721,LOGO-OTBMEX         ,11251,OTBMEX.jpg
103833739,LOGO-STANSPLACE     ,8215,StansPlace.jpg
103833755,LOGO-MILLIONAIR     ,5665,MILLIONAIR.jpg
103834013,LOGO-GRONARTISAN    ,3706,GronArtisan.jpg
103834045,LOGO-GREATLAKES     ,5586,GREATLAKES.jpg
103834076,LOGO-NATURALGROCER  ,7064,NaturalGrocer.jpg
103834357,LOGO-OUTBACK2       ,3761,OUTBACK2.JPG
103834483,LOGO-ROBERTTRENT    ,12585,RobertTrent.jpg
103834486,LOGO-CITYWINERY     ,3212,CityWinery.jpg
103834668,LOGO-APPLEBEES      ,2891,APPLEBEES.JPG
103834679,LOGO-BONEFISH       ,7402,BONEFISH.jpg
103834988,LOGO-CAFE101        ,4235,Cafe101.jpg
103835012,LOGO-GRILLMARKSBSB  ,4831,GrillMarksBSB.jpg
103835119,LOGO-HARLEMEATUP    ,5178,HarlemEatUp.jpg
103835120,LOGO-BUFFALOCROSS   ,10683,BUFFALOCROSS.jpg
103835209,LOGO-ELGINCOMMCOL   ,8357,ElginCommCol.jpg
103835215,LOGO-OTB2017        ,3802,OTB2017.jpg
103835278,LOGO-JANEYLOUS      ,7356,JaneyLous.jpg
103835302,LOGO-STOCKSON       ,3979,STOCKSON.jpg
103835325,LOGO-INNWOODS       ,6419,INNWOODS.jpg
103835437,LOGO-OHLAVACHE      ,7665,OhLaVache.jpg
103835526,LOGO-CJR            ,9629,CJR.jpg
103835595,LOGO-OUTBACK2       ,3761,OUTBACK2.JPG
103835665,LOGO-FULLTILTSAL    ,4449,FullTiltSal.jpg
103835973,LOGO-MALONES        ,4711,MALONES.jpg
103835978,LOGO-FRESHMEDICINE  ,5364,FreshMedicine.jpg
103836345,LOGO-SUMMITCOLABOR  ,3448,SummitColabor.jpg
103836423,LOGO-SPORTSONEBAR   ,3407,SportsOneBar.jpg
103836428,LOGO-OHIOWEXNERMD   ,6062,OHIOWEXNERMD.jpg
103836479,LOGO-FOODBYBEL      ,5840,FoodbyBel.jpg
103836566,LOGO-GREENSGRAVY    ,3651,GreensGravy.jpg
103836572,LOGO-BJS            ,8878,BJS.jpg
103836721,LOGO-FLOWER         ,9960,Flower.jpg
103836764,LOGO-GRANDVIEWMA    ,2944,GrandViewMa.jpg
103836976,LOGO-BOSKEYSGRILL   ,3344,BoskeysGrill.jpg
103836979,LOGO-DAVEBUSTERS    ,10683,DaveBusters.jpg
103837452,LOGO-DAYTON         ,1946,DAYTON.jpg
103837509,LOGO-CEDARSINAI     ,7203,CEDARSINAI.jpg
103837719,LOGO-CHILISDINING   ,3231,ChilisDining.jpg
103838018,LOGO-DAVEBUSTERS    ,10683,DaveBusters.jpg
103838286,LOGO-RAMBLINGOAKS   ,7109,RAMBLINGOAKS.jpg
103838443,LOGO-OTHOTEL        ,3033,OTHotel.jpg
103838450,LOGO-APPLEBEESAPPLE ,962,ApplebeesApple.jpg
103795120,LOGO-BCRIBBON       ,3825,BCRIBBON.jpg
103795755,LOGO-APPLEBEES      ,2891,APPLEBEES.JPG
103796077,LOGO-DINERSCHOICE   ,4879,DINERSCHOICE.jpg
103796174,LOGO-ROOM38         ,4826,ROOM38.jpg
103796531,LOGO-BRIARWOODLB    ,4625,BriarwoodLB.jpg
103797169,LOGO-BIGLEAGUE      ,11251,BIGLEAGUE.jpg
103797286,LOGO-OLIVEGARDEN    ,6167,OliveGarden.jpg
103798332,LOGO-FRESHIDEAS     ,3802,FreshIdeas.jpg
103798629,LOGO-LACUCCINA      ,2891,LACUCCINA.jpg
103798751,LOGO-GUSS           ,16559,GUSS.jpg
103798968,LOGO-BBOURBON       ,14132,BBOURBON.jpg
103799127,LOGO-HILTONGARDEN   ,3598,HiltonGarden.jpg
103799314,LOGO-ACE            ,5982,ACE.jpg
103799908,LOGO-GUAVA          ,4705,GUAVA.jpg
103800517,LOGO-RUBYTUESDAY    ,1789,RUBYTUESDAY.JPG
103800843,LOGO-CATHEDRAL      ,8552,CATHEDRAL.jpg
103801350,LOGO-DAVEBUSTERS    ,10683,DaveBusters.jpg
103802146,LOGO-STMORITZ       ,8154,STMORITZ.jpg
103802197,LOGO-DAYTON         ,1946,DAYTON.jpg
103802675,LOGO-ESPANAS        ,7267,ESPANAS.jpg
103803189,LOGO-GREENFIELDSEN2 ,6302,GREENFIELDSEN2.jpg
103803328,LOGO-CANTINALAREDO  ,4833,CantinaLaredo.jpg
103804003,LOGO-BONEFISH       ,7402,BONEFISH.jpg
103804202,LOGO-SOUTHFORK      ,2189,SOUTHFORK.jpg
103804204,LOGO-ERICKLINDENPO  ,3861,ErickLindenPo.jpg
103804397,LOGO-MAGGIANOS      ,4132,MAGGIANOS.JPG
103804470,LOGO-COA            ,9251,COA.jpg
103804518,LOGO-OUTBACK2       ,3761,OUTBACK2.JPG
103804665,LOGO-JBALDWINS      ,2697,JBALDWINS.jpg
103804745,LOGO-ARBORHOUSE     ,3687,ArborHouse.jpg
103804984,LOGO-BAUMS          ,2600,BAUMS.JPG
103805029,LOGO-JENNINGSTERR   ,9487,JENNINGSTERR.jpg
103805168,LOGO-WOODWARDEDU    ,5127,WOODWARDEDU.jpg
103806395,LOGO-DAYTON         ,1946,DAYTON.jpg
103806764,LOGO-BONEFISH       ,7402,BONEFISH.jpg
103806962,LOGO-ADOBEROSE      ,7711,ADOBEROSE.jpg
103807081,LOGO-OUTBACK2       ,3761,OUTBACK2.JPG
103811124,LOGO-RUTHSCHRIS     ,6084,RUTHSCHRIS.JPG
103812705,LOGO-REDLOBSTER     ,7196,RedLobster.jpg
103812948,LOGO-DAVEBUSTERS    ,10683,DaveBusters.jpg
103813110,LOGO-DENVERRM       ,9297,DENVERRM.jpg
103813832,LOGO-BROOKDALESL    ,2396,BROOKDALESL.jpg
103814107,LOGO-CHILISDINING   ,3231,ChilisDining.jpg
103814174,LOGO-HEAVENLYCATER  ,3696,HEAVENLYCATER.jpg
103814372,LOGO-BONEFISH       ,7402,BONEFISH.jpg
103814378,LOGO-OUTBACK2       ,3761,OUTBACK2.JPG
103814499,LOGO-VILLANOVAEDU   ,7552,VILLANOVAEDU.jpg
103815954,LOGO-BAUMS          ,2600,BAUMS.JPG
103816226,LOGO-HILTONGARDEN   ,3598,HiltonGarden.jpg
103816782,LOGO-JEKYLL         ,3485,JEKYLL.jpg
103817555,LOGO-OUTBACK2       ,3761,OUTBACK2.JPG
103817970,LOGO-OTHOTEL        ,3033,OTHotel.jpg
103818092,LOGO-STERLING       ,7077,STERLING.jpg
103818218,LOGO-HEALTHCARESG   ,3348,HEALTHCARESG.jpg
103818792,LOGO-BONEFISH       ,7402,BONEFISH.jpg
103818812,LOGO-FLOWER         ,9960,Flower.jpg
103818980,LOGO-FRIEDAYS       ,17627,Friedays.jpg
103819011,LOGO-MCDONALDS      ,2607,MCDONALDS.JPG
103819883,LOGO-BENTONHOUSE    ,4007,BentonHouse.jpg
103820101,LOGO-BEACHHOMALIBU  ,12002,BeachHoMalibu.jpg
103820550,LOGO-BONEFISH       ,7402,BONEFISH.jpg
103821497,LOGO-CHILISDINING   ,3231,ChilisDining.jpg
103821799,LOGO-PLANTPURE      ,3019,PLANTPURE.jpg
103821860,LOGO-OUTBACK2       ,3761,OUTBACK2.JPG
103822750,LOGO-PRAIRIE        ,9053,PRAIRIE.jpg
103823410,LOGO-DAVEBUSTERS    ,10683,DaveBusters.jpg
103823784,LOGO-KEYIMPACT      ,11370,KeyImpact.jpg
103823817,LOGO-ATRIUMCAFE     ,2572,AtriumCafe.jpg
103823984,LOGO-UNITY          ,4021,UNITY.jpg
103824076,LOGO-MAINGRILL      ,10287,MAINGRILL.jpg
103824280,LOGO-OUTBACK2       ,3761,OUTBACK2.JPG
103824463,LOGO-BONEFISH       ,7402,BONEFISH.jpg
103824466,LOGO-OUTBACK2       ,3761,OUTBACK2.JPG
103825303,LOGO-BILLYCASPER    ,5097,BILLYCASPER.jpg
103826022,LOGO-OUTBACK2       ,3761,OUTBACK2.JPG
103826386,LOGO-ARAMARK1       ,1304,ARAMARK1.jpg
103826553,LOGO-STERLING       ,7077,STERLING.jpg
103826655,LOGO-MILLIEPEARTR   ,16119,MilliePearTr.jpg
103827307,LOGO-MTFUJI         ,2129,MTFUJI.JPG
103828110,LOGO-LEGACYSLC      ,10072,LEGACYSLC.jpg
103828165,LOGO-RADICI         ,3279,RADICI.jpg
103828293,LOGO-OUTBACK2       ,3761,OUTBACK2.JPG
103828537,LOGO-OUTBACK2       ,3761,OUTBACK2.JPG
103828857,LOGO-DAYTON         ,1946,DAYTON.jpg
103829942,LOGO-FANCYS5TH      ,5880,Fancys5th.jpg
103830218,LOGO-PAULIES        ,2066,Paulies.jpg
103830307,LOGO-ADOBEROSE      ,7711,ADOBEROSE.jpg
103830424,LOGO-KAISERTHRIVE   ,3879,KaiserThrive.jpg
103830530,LOGO-LEGACYSLC      ,10072,LEGACYSLC.jpg
103830980,LOGO-OUTBACK2       ,3761,OUTBACK2.JPG
103831424,LOGO-KAISERTHRIVE   ,3879,KaiserThrive.jpg
103832206,LOGO-BIRCHFARMS     ,3257,BirchFarms.jpg
103832413,LOGO-OTHOTEL        ,3033,OTHotel.jpg
103832627,LOGO-PRESSEDBAR     ,6287,PRESSEDBAR.jpg
103832699,LOGO-CHGCRAVEABLE   ,2783,CHGCraveable.jpg
103832883,LOGO-OTHOTEL        ,3033,OTHotel.jpg
103833069,LOGO-OTHOTEL        ,3033,OTHotel.jpg
103833233,LOGO-SEN            ,4726,SEN.JPG
103833282,LOGO-BARBEQUEUNLIM  ,9687,BarbequeUnlim.jpg
103833483,LOGO-FSC            ,7333,FSC.jpg
103833535,LOGO-CHEFGOYETTE    ,3586,ChefGoyette.jpg
103833642,LOGO-SALSACONFUEGO  ,9423,SalsaConFuego.jpg
103833755,LOGO-ASCENT         ,2789,Ascent.jpg
103833794,LOGO-OTHOTEL        ,3033,OTHotel.jpg
103833813,LOGO-OUTBACK2       ,3761,OUTBACK2.JPG
103833892,LOGO-BOULSPORTS     ,5168,BoulSports.jpg
103834004,LOGO-LODGESPA       ,5504,LODGESPA.jpg
103834044,LOGO-RAMBLINGOAKS   ,7109,RAMBLINGOAKS.jpg
103834059,LOGO-GREATLAKES     ,5586,GREATLAKES.jpg
103834092,LOGO-SWEETESTLOVE   ,10289,SweetestLove.jpg
103834098,LOGO-SIXTHENGINE    ,11300,SIXTHENGINE.jpg
103834137,LOGO-PFCHANGSIRSI   ,4273,PFCHANGSIRSI.jpg
103834265,LOGO-PECKINGORDER   ,5017,PeckingOrder.jpg
103834302,LOGO-FISHCITY       ,9710,FISHCITYEDIT.JPG
103834376,LOGO-APPLEBEES      ,2891,APPLEBEES.JPG
103834406,LOGO-GOLDENCORRAL   ,1594,GOLDENCORRAL.JPG
103834529,LOGO-BLUCHOPHOUSE   ,3232,BluChophouse.jpg
103834894,LOGO-OUTBACK2       ,3761,OUTBACK2.JPG
103834919,LOGO-ADOBEROSE      ,7711,ADOBEROSE.jpg
103835130,LOGO-POMONA         ,4732,POMONA.jpg
103835137,LOGO-CASOW          ,4607,Casow.jpg
103835187,LOGO-5STARCAFE      ,5518,5StarCafe.jpg
103835362,LOGO-ATRIUMCAFE     ,2572,AtriumCafe.jpg
103835424,LOGO-LAHACIENDATUC  ,5286,LaHaciendaTuc.jpg
103835557,LOGO-KKCUPCAKEBOU   ,10372,KKCupCakeBou.jpg
103835630,LOGO-BLAMEHERRANCH  ,7124,BlameHerRanch.jpg
103835758,LOGO-CHILISDINING   ,3231,ChilisDining.jpg
103835787,LOGO-FEEDMORE       ,4461,FEEDMORE.jpg
103835794,LOGO-FOSTERFARMS    ,28265,FOSTERFARMS.jpg
103835800,LOGO-BONEFISH       ,7402,BONEFISH.jpg
103835813,LOGO-TANOANCOCLUB   ,6996,TanoanCoClub.jpg
103835868,LOGO-WILLIAMGREEN   ,4035,WilliamGreen.jpg
103835957,LOGO-LITTLEJUICE    ,1055,LittleJuice.jpg
103835978,LOGO-FRESHMEDSYM    ,6363,FreshMedSym.jpg
103836027,LOGO-PROSTART       ,5474,PROSTART.JPG
103836039,LOGO-APPLEBEES      ,2891,APPLEBEES.JPG
103836393,LOGO-ATRIUMCAFE     ,2572,AtriumCafe.jpg
103836439,LOGO-OLIVEGARDEN    ,6167,OliveGarden.jpg
103836596,LOGO-LOVINGCARE     ,5267,LovingCareHos.jpg
103836615,LOGO-OUTBACK2       ,3761,OUTBACK2.JPG
103836793,LOGO-DAVEBUSTERS    ,10683,DaveBusters.jpg
103836804,LOGO-SMOKINTHYME    ,25508,SmokinThyme.jpg
103837026,LOGO-HEB            ,10391,HEB.jpg
103837168,LOGO-ROCKISLAND     ,10383,ROCKISLAND.jpg
103837321,LOGO-APPLEBEES      ,2891,APPLEBEES.JPG
103837383,LOGO-CHILISDINING   ,3231,ChilisDining.jpg
103837556,LOGO-SUPERDININGSE  ,3988,SuperDiningSe.jpg
103837674,LOGO-SANDBAR        ,4903,SANDBAR.jpg
103838294,LOGO-ANDRETTIGRILL  ,5229,AndrettiGrill.jpg
103838321,LOGO-APPLEBEES      ,2891,APPLEBEES.JPG
103838450,LOGO-APPLEBEES      ,2891,APPLEBEES.JPG